{"total":8051,"offset":10,"limit":5,"next_offset":15,"items":[
  {"name":"1000countryhits","display_name":"1000 Countryhits","spoken_name":null,"page_url":"https://laut.fm/1000countryhits","stream_url":"https://stream.laut.fm/1000countryhits","api_urls":{"station":"https://api.laut.fm/station/1000countryhits","current_song":"https://api.laut.fm/station/1000countryhits/current_song","last_songs":"https://api.laut.fm/station/1000countryhits/last_songs","next_artists":"https://api.laut.fm/station/1000countryhits/next_artists","playlists":"https://api.laut.fm/station/1000countryhits/playlists","schedule":"https://api.laut.fm/station/1000countryhits/schedule","listeners":"https://api.laut.fm/station/1000countryhits/listeners"},"format":"Countrymusik für Cowboys und Trucker.","description":"Countrymusik für Cowboys und Trucker.","djs":"1000 Countryhits","location":"Konstanz","lat":47.6592,"lng":9.17507,"color":"#913101","updated_at":"2020-06-16 06:00:13 +0000","genres":["Country","Blues","Pop","Rock","Schlager"],"active":true,"third_parties":{"amazon":{"invocation_name":"tausend country hits","skill_name":"1000 Countryhits"},"facebook":{"page":"https://www.facebook.com/1000Countryhits/"},"tunein":{"id":"226473","url":"https://tunein.com/radio/1000countryhits-s226473/"},"website":{"url":"https://1000countryhits.de"},"phonostar":{"url":"https://www.phonostar.de/radio/lautfm/1000countryhits"},"radiode":{"url":"https://www.radio.de/s/lautfm-1000countryhits"}},"images":{"station":"https://assets.laut.fm/199261a401c995c064d2881a96c7f656","station_80x80":"https://assets.laut.fm/199261a401c995c064d2881a96c7f656?t=_80x80","station_120x120":"https://assets.laut.fm/199261a401c995c064d2881a96c7f656?t=_120x120","station_640x640":"https://assets.laut.fm/199261a401c995c064d2881a96c7f656?t=_640x640","website":"https://assets.laut.fm/1232e8736988af9bf900c1cb699a5d68","website_640x640":"https://assets.laut.fm/1232e8736988af9bf900c1cb699a5d68?t=_640x640"},"current_playlist":{"id":99629,"name":"do0","day":"thu","hour":0,"end_time":0,"description":null,"color":"#ff0000","length":88056,"shuffled":false,"starts_at":"2020-11-26 00:00:00 +0100","started_at":"2020-11-26 00:00:00 +0100","ends_at":"2020-11-27 00:00:00 +0100"},"next_playlist":{"id":99653,"name":"fr0","day":"fri","hour":0,"end_time":0,"description":null,"color":"#ff0000","length":87090,"shuffled":false,"starts_at":"2020-11-27 00:00:00 +0100","started_at":"2020-11-27 00:00:00 +0100","ends_at":"2020-11-28 00:00:00 +0100"},"top_artists":["Truck Stop","Tom Astor","Jonny Hill","Gunter Gabriel","Bellamy Brothers","Kenny Rogers","Volker Lechtenbrink","Linda Ronstadt","Juice Newton","Boss Band"],"position":11},
  {"name":"volksmusikradio","display_name":"Volksmusik-Radio","spoken_name":null,"page_url":"https://laut.fm/volksmusikradio","stream_url":"https://stream.laut.fm/volksmusikradio","api_urls":{"station":"https://api.laut.fm/station/volksmusikradio","current_song":"https://api.laut.fm/station/volksmusikradio/current_song","last_songs":"https://api.laut.fm/station/volksmusikradio/last_songs","next_artists":"https://api.laut.fm/station/volksmusikradio/next_artists","playlists":"https://api.laut.fm/station/volksmusikradio/playlists","schedule":"https://api.laut.fm/station/volksmusikradio/schedule","listeners":"https://api.laut.fm/station/volksmusikradio/listeners"},"format":"100% Volksmusik - den ganzen Tag!","description":"VolksmusikRadio.de ist DER Sender für alle Freunde der volkstümlichen Musik!","djs":"www.VolksmusikRadio.de","location":"","lat":null,"lng":null,"color":"#333333","updated_at":"2020-07-03 06:58:37 +0000","genres":["Volksmusik","Schlager"],"active":true,"third_parties":{"amazon":{"skill_name":"Volksmusik-Radio","invocation_name":"volksmusik radio"},"facebook":{"page":"https://www.facebook.com/pages/Volksmusikradio/548298481935741"},"twitter":{"name":"VolksmusikRadio","url":"https://twitter.com/VolksmusikRadio"},"website":{"url":"http://www.VolksmusikRadio.de"},"tunein":{"id":"205844","url":"https://tunein.com/radio/volksmusikradio-s205844/"},"phonostar":{"url":"https://www.phonostar.de/radio/lautfm/volksmusikradio"},"radiode":{"url":"https://www.radio.de/s/lautfm-volksmusikradio"}},"images":{"station":"https://assets.laut.fm/ec54c34b6a5e2cb04ca03a6dbd4362de","station_80x80":"https://assets.laut.fm/ec54c34b6a5e2cb04ca03a6dbd4362de?t=_80x80","station_120x120":"https://assets.laut.fm/ec54c34b6a5e2cb04ca03a6dbd4362de?t=_120x120","station_640x640":"https://assets.laut.fm/ec54c34b6a5e2cb04ca03a6dbd4362de?t=_640x640","website":"https://assets.laut.fm/d8b3c15a0421044973ceb6da7b8149ab","website_640x640":"https://assets.laut.fm/d8b3c15a0421044973ceb6da7b8149ab?t=_640x640"},"current_playlist":{"id":108043,"name":"Volksmusik 64","day":"thu","hour":15,"end_time":16,"description":null,"color":"#666699","length":3600,"shuffled":false,"starts_at":"2020-11-26 15:00:00 +0100","started_at":"2020-11-26 15:00:00 +0100","ends_at":"2020-11-26 16:00:00 +0100"},"next_playlist":{"id":108044,"name":"Volksmusik 65","day":"thu","hour":16,"end_time":17,"description":null,"color":"#808080","length":3613,"shuffled":false,"starts_at":"2020-11-26 16:00:00 +0100","started_at":"2020-11-26 16:00:00 +0100","ends_at":"2020-11-26 17:00:00 +0100"},"top_artists":["Zellberg Buam","Kastelruther Spatzen","Ursprung Buam","Patrick Lindner","Die Mayrhofner","Andy Borg","Hansi Hinterseer","Die Ladiner","Alpentrio Tirol","Amigos"],"position":12},
  {"name":"80er","display_name":"80er","spoken_name":null,"page_url":"https://laut.fm/80er","stream_url":"https://stream.laut.fm/80er","api_urls":{"station":"https://api.laut.fm/station/80er","current_song":"https://api.laut.fm/station/80er/current_song","last_songs":"https://api.laut.fm/station/80er/last_songs","next_artists":"https://api.laut.fm/station/80er/next_artists","playlists":"https://api.laut.fm/station/80er/playlists","schedule":"https://api.laut.fm/station/80er/schedule","listeners":"https://api.laut.fm/station/80er/listeners"},"format":"80er, Pop.","description":"80er Hits von den Tanzflächen des legendären Jahrzehnts. Musik die klingt wie die 80er Mode aussah: schrill und bunt. Wie wir sie kennen und immer wieder hören wollen. Einfach Pop Klassiker auf einem einzigen Internetradio!","djs":"","location":"","lat":null,"lng":null,"color":"#333333","updated_at":"2020-06-16 06:00:18 +0000","genres":["80er"],"active":true,"third_parties":{"amazon":{"skill_name":"80er-Radio","invocation_name":"achtziger radio"},"tunein":{"id":"230510","url":"https://tunein.com/radio/80er-s230510/"},"phonostar":{"url":"https://www.phonostar.de/radio/lautfm/80er"},"radiode":{"url":"https://www.radio.de/s/lautfm-80er"}},"images":{"station":"https://assets.laut.fm/949d21d32b4ce6723473cc1093811d85","station_80x80":"https://assets.laut.fm/949d21d32b4ce6723473cc1093811d85?t=_80x80","station_120x120":"https://assets.laut.fm/949d21d32b4ce6723473cc1093811d85?t=_120x120","station_640x640":"https://assets.laut.fm/949d21d32b4ce6723473cc1093811d85?t=_640x640"},"current_playlist":{"id":108084,"name":"The 80s","day":"mon","hour":0,"end_time":null,"description":null,"color":"#ff0000","length":22224,"shuffled":true,"starts_at":"2020-11-23 00:00:00 +0100","started_at":"2020-11-23 00:00:00 +0100","ends_at":"2020-11-30 00:00:00 +0100"},"next_playlist":{"id":108084,"name":"The 80s","day":"mon","hour":0,"end_time":null,"description":null,"color":"#ff0000","length":22224,"shuffled":true,"starts_at":"2020-11-30 00:00:00 +0100","started_at":"2020-11-30 00:00:00 +0100","ends_at":"2020-12-07 00:00:00 +0100"},"top_artists":["Michael Jackson","The Bangles","Madonna","Foreigner","Tina Turner","Falco","Whitney Houston","Lionel Richie","Steve Miller Band","Depeche Mode"],"position":10},
  {"name":"schlagerweihnacht","display_name":"Schlagerweihnacht","spoken_name":null,"page_url":"https://laut.fm/schlagerweihnacht","stream_url":"https://stream.laut.fm/schlagerweihnacht","api_urls":{"station":"https://api.laut.fm/station/schlagerweihnacht","current_song":"https://api.laut.fm/station/schlagerweihnacht/current_song","last_songs":"https://api.laut.fm/station/schlagerweihnacht/last_songs","next_artists":"https://api.laut.fm/station/schlagerweihnacht/next_artists","playlists":"https://api.laut.fm/station/schlagerweihnacht/playlists","schedule":"https://api.laut.fm/station/schlagerweihnacht/schedule","listeners":"https://api.laut.fm/station/schlagerweihnacht/listeners"},"format":"Das Weihnachtsradio von 1000Schlager.de.","description":"Weihnachtliche Schlager und echte Weihnachtslieder in einer einmaligen Mischung. Traditionelles und Neues, Jahr für Jahr. Wir wünschen eine schöne Adventszeit und ein frohes Fest.","djs":"Schlagerweihnacht","location":"Weihnachtswunderland","lat":null,"lng":null,"color":"#900000","updated_at":"2020-03-28 11:18:44 +0000","genres":["Weihnachtslieder","Schlager","X-MAS","Easy Listening"],"active":true,"third_parties":{"amazon":{"invocation_name":"schlager weihnacht","skill_name":"Schlagerweihnacht"},"facebook":{"page":"https://www.facebook.com/Schlagerweihnacht"},"tunein":{"id":"151601","url":"https://tunein.com/radio/schlagerweihnacht-s151601/"},"website":{"url":"https://schlagerweihnacht.de"},"phonostar":{"url":"https://www.phonostar.de/radio/lautfm/schlagerweihnacht"},"radiode":{"url":"https://www.radio.de/s/lautfm-schlagerweihnacht"}},"images":{"station":"https://assets.laut.fm/a7bab1ee2eeabbd734cf1e871e098e8f","station_80x80":"https://assets.laut.fm/a7bab1ee2eeabbd734cf1e871e098e8f?t=_80x80","station_120x120":"https://assets.laut.fm/a7bab1ee2eeabbd734cf1e871e098e8f?t=_120x120","station_640x640":"https://assets.laut.fm/a7bab1ee2eeabbd734cf1e871e098e8f?t=_640x640","background":"https://assets.laut.fm/c6fad7d5ddfccaf1f993d13a461f205b","background_1024x768":"https://assets.laut.fm/c6fad7d5ddfccaf1f993d13a461f205b?t=_1024x768","background_768x1024":"https://assets.laut.fm/c6fad7d5ddfccaf1f993d13a461f205b?t=_768x1024","website":"https://assets.laut.fm/fce4437fe0b591523156cbccfc595fd3","website_640x640":"https://assets.laut.fm/fce4437fe0b591523156cbccfc595fd3?t=_640x640"},"current_playlist":{"id":98319,"name":"do0","day":"thu","hour":0,"end_time":0,"description":null,"color":"#ff0000","length":86804,"shuffled":false,"starts_at":"2020-11-26 00:00:00 +0100","started_at":"2020-11-26 00:00:00 +0100","ends_at":"2020-11-27 00:00:00 +0100"},"next_playlist":{"id":98343,"name":"fr0","day":"fri","hour":0,"end_time":0,"description":null,"color":"#ff0000","length":87422,"shuffled":false,"starts_at":"2020-11-27 00:00:00 +0100","started_at":"2020-11-27 00:00:00 +0100","ends_at":"2020-11-28 00:00:00 +0100"},"top_artists":["Tom Astor","Peter Alexander","Ingrid Peters","Uta Bresan","Rolf Zuckowski","Patrick Lindner","Nicole","James Last","Axel Becker","Roland Kaiser"],"position":15},
  {"name":"0-24_80er_pop_rock","display_name":"0-24 80er Pop-Rock","spoken_name":null,"page_url":"https://laut.fm/0-24_80er_pop_rock","stream_url":"https://stream.laut.fm/0-24_80er_pop_rock","api_urls":{"station":"https://api.laut.fm/station/0-24_80er_pop_rock","current_song":"https://api.laut.fm/station/0-24_80er_pop_rock/current_song","last_songs":"https://api.laut.fm/station/0-24_80er_pop_rock/last_songs","next_artists":"https://api.laut.fm/station/0-24_80er_pop_rock/next_artists","playlists":"https://api.laut.fm/station/0-24_80er_pop_rock/playlists","schedule":"https://api.laut.fm/station/0-24_80er_pop_rock/schedule","listeners":"https://api.laut.fm/station/0-24_80er_pop_rock/listeners"},"format":"Musik der 80er, Pop und Rock.","description":"24 Stunden Musik unserer Jugend.","djs":"","location":"","lat":null,"lng":null,"color":"#ff9800","updated_at":"2020-10-09 10:00:46 +0000","genres":["80er","Pop","Rock","New Wave","Oldies"],"active":true,"third_parties":{"amazon":{"invocation_name":"pop rock radio","skill_name":"Pop Rock-Radio"},"facebook":{"page":"https://www.facebook.com/101fm.de/"},"tunein":{"id":"248439","url":"https://tunein.com/radio/0-24_80er_pop_rock-s248439/"},"website":{"url":"http://www.101fm.de"},"phonostar":{"url":"https://www.phonostar.de/radio/lautfm/0-24_80er_pop_rock"},"radiode":{"url":"https://www.radio.de/s/lautfm-0-24_80er_pop_rock"}},"images":{"station":"https://assets.laut.fm/422fe2fd8f3eb9812ffa4250d200ce99","station_80x80":"https://assets.laut.fm/422fe2fd8f3eb9812ffa4250d200ce99?t=_80x80","station_120x120":"https://assets.laut.fm/422fe2fd8f3eb9812ffa4250d200ce99?t=_120x120","station_640x640":"https://assets.laut.fm/422fe2fd8f3eb9812ffa4250d200ce99?t=_640x640","website":"https://assets.laut.fm/dab06432a7ef90aa12a90d1bc23b7588","website_640x640":"https://assets.laut.fm/dab06432a7ef90aa12a90d1bc23b7588?t=_640x640"},"current_playlist":{"id":118240,"name":"Rotation","day":"thu","hour":14,"end_time":21,"description":null,"color":"#666666","length":215898,"shuffled":true,"starts_at":"2020-11-26 14:00:00 +0100","started_at":"2020-11-26 14:00:00 +0100","ends_at":"2020-11-26 21:00:00 +0100"},"next_playlist":{"id":114586,"name":"80er Maximal","day":"thu","hour":21,"end_time":22,"description":null,"color":"#ff0000","length":74714,"shuffled":true,"starts_at":"2020-11-26 21:00:00 +0100","started_at":"2020-11-26 21:00:00 +0100","ends_at":"2020-11-26 22:00:00 +0100"},"top_artists":["Depeche Mode","Secret Service","Madonna","Tina Turner","The Bangles","Robert Palmer","Queen","Pet Shop Boys","Natalie Cole","Modern Talking"],"position":14}
]}
